<?xml version="1.0" encoding="utf-8"?>
<!-- Generator: Adobe Illustrator 20.1.0, SVG Export Plug-In . SVG Version: 6.00 Build 0)  -->
<svg version="1.1" id="Layer_1" xmlns="http://www.w3.org/2000/svg" xmlns:xlink="http://www.w3.org/1999/xlink" x="0px" y="0px"
	 viewBox="0 0 128 86.6" style="enable-background:new 0 0 128 86.6;" xml:space="preserve">
<style type="text/css">
	.st0{font-family:'FiraSans-Bold';}
	.st1{font-size:114.1004px;}
</style>
<text transform="matrix(0.8772 0 0 1 -6.1255 86.5557)" class="st0 st1">km</text>
</svg>
